﻿{
  "ProtocolConfiguration": {
    "Magic": 1704630,
    "AddressVersion": 23,
    "StandbyValidators": [
      "03273ae442ca9112342c07b2d158a69059ded6779fb54f9c83d5c6c5b1c2e16fca",
      "034dc456ed5bc4b5347e4460340d0e93216970ee41ef4ff52a886b8915a3eb8f03",
      "038e4aca15b8054ab2a1f38c4a96ff1b1e0f4694d2a33695169796b33dbc0cbadf",
      "02cd9297cb25e0b30495807b9657d57045489eac2cc7674bf39dbec240a0dd3226"
    ],
    "SeedList": [
      "192.168.3.1:10333",
      "192.168.3.2:10333",
      "192.168.3.3:10333",
      "192.168.3.4:10333"
    ],
    "SystemFee": {
      "EnrollmentTransaction": 0,
      "IssueTransaction": 0,
      "PublishTransaction": 0,
      "RegisterTransaction": 0
    }
  }
}
